\relax 
\citation{https://histinf.blogs.upv.es/2013/12/18/raspberry-pi/}
\citation{http://bibing.us.es/proyectos/abreproy/11253/fichero/memoria}
\citation{https://www.diarioelectronicohoy.com/blog/sensor-mpu6050}
\newlabel{usepackage}{{}{}}
\newlabel{sec:titulo}{{}{}}
\newlabel{sec:resumen}{{}{}}
\@writefile{toc}{\contentsline {section}{\numberline {I}Introducci\'on}{}\protected@file@percent }
\newlabel{sec:introduccion}{{I}{}}
\@writefile{toc}{\contentsline {section}{\numberline {II}Marco Te\'orico}{}\protected@file@percent }
\newlabel{sec:marcoteorico}{{II}{}}
\@writefile{lof}{\contentsline {figure}{\numberline {1}{\ignorespaces Imu MPU6050}}{}\protected@file@percent }
\newlabel{fig:ECCI2}{{1}{}}
\@writefile{lof}{\contentsline {figure}{\numberline {2}{\ignorespaces raspberry Pi3}}{}\protected@file@percent }
\newlabel{fig:ECCI2}{{2}{}}
\newlabel{fig:ECCI2}{{II}{}}
\@writefile{toc}{\contentsline {section}{\numberline {III}Resultados}{}\protected@file@percent }
\newlabel{sec:resultados}{{III}{}}
\@writefile{lof}{\contentsline {figure}{\numberline {3}{\ignorespaces C\'odigo mbed }}{}\protected@file@percent }
\newlabel{fig:ECCI2}{{3}{}}
\@writefile{lof}{\contentsline {figure}{\numberline {4}{\ignorespaces Datos Obtenidos }}{}\protected@file@percent }
\newlabel{fig:ECCI2}{{4}{}}
\@writefile{lof}{\contentsline {figure}{\numberline {5}{\ignorespaces Conexi\'on de STM32 Y Raspberry pi 3}}{}\protected@file@percent }
\newlabel{fig:ECCI2}{{5}{}}
\@writefile{lof}{\contentsline {figure}{\numberline {6}{\ignorespaces C\'odigo en Python}}{}\protected@file@percent }
\newlabel{fig:ECCI2}{{6}{}}
\@writefile{lof}{\contentsline {figure}{\numberline {7}{\ignorespaces en posici\'on IMU}}{}\protected@file@percent }
\newlabel{fig:ECCI2}{{7}{}}
\@writefile{lof}{\contentsline {figure}{\numberline {8}{\ignorespaces Acaler\'ometro no calibrado}}{}\protected@file@percent }
\newlabel{fig:ECCI2}{{8}{}}
\@writefile{lof}{\contentsline {figure}{\numberline {9}{\ignorespaces Aceler\'ometro calibrado}}{}\protected@file@percent }
\newlabel{fig:ECCI2}{{9}{}}
\@writefile{lof}{\contentsline {figure}{\numberline {10}{\ignorespaces Gir\'oscopio no calibrado}}{}\protected@file@percent }
\newlabel{fig:ECCI2}{{10}{}}
\@writefile{lof}{\contentsline {figure}{\numberline {11}{\ignorespaces Gir\'oscopio calibrado}}{}\protected@file@percent }
\newlabel{fig:ECCI2}{{11}{}}
\@writefile{lof}{\contentsline {figure}{\numberline {12}{\ignorespaces \'Angulo roll}}{}\protected@file@percent }
\newlabel{fig:ECCI2}{{12}{}}
\@writefile{toc}{\contentsline {section}{\numberline {IV}An\'alisis}{}\protected@file@percent }
\newlabel{sec:analisis}{{IV}{}}
\bibstyle{IEEEtran}
\bibdata{bibfile}
\bibcite{https://histinf.blogs.upv.es/2013/12/18/raspberry-pi/}{1}
\bibcite{http://bibing.us.es/proyectos/abreproy/11253/fichero/memoria}{2}
\bibcite{https://www.diarioelectronicohoy.com/blog/sensor-mpu6050}{3}
\@writefile{lof}{\contentsline {figure}{\numberline {13}{\ignorespaces \'Angulo pitch}}{}\protected@file@percent }
\newlabel{fig:ECCI2}{{13}{}}
\@writefile{toc}{\contentsline {section}{\numberline {V}Conclusiones}{}\protected@file@percent }
\newlabel{sec:conclusiones}{{V}{}}
\@writefile{toc}{\contentsline {section}{Referencias}{}\protected@file@percent }
